#load	BP0	dB0	BP1	dB1	BP2	dB2	BP3	dB3	DP0	dD0	DP1	dD1	DP2	dD2	DP3	dD3	BKC	dBC	DSC	dDC	TC	dTC	BBR	dBBR	BR	dBR	BbDC	dBbDC	BbVNF	dBbVNF	BbBW	dBbBW	BbP	dBbP	BbLP	dBbLP	SC	dSC	RC	dRC	RP0	dR0	RP1	dR1	RP2	dR2	RP3	dR3	AD0	dA0	AD1	dA1	AD2	dA2	AD3	dA3
50	54.027990	1.600644	54.145476	1.545793	54.106336	1.818986	54.031227	1.121806	40.000000	30.364189	50.000000	30.990321	60.000000	30.364189	50.000000	30.990321	44421.931000	1265.938954	84.870000	68.768175	44506.800000	1277.938214	57.542810	1.414761	54.069000	1.278438	0.000000	0.000000	0.000000	0.000000	0.246000	0.094536	6.142000	6.884196	47.681000	5.769273	4915.000000	303.973821	2428066.500000	89124.129607	0.000000	0.000000	0.000000	0.000000	0.000000	0.000000	0.000000	0.000000	0.205230	0.178894	0.126834	0.097568	0.162850	0.113713	0.151669	0.131762
90	69.688975	1.370842	69.493205	1.514832	68.928589	1.145592	69.361880	1.130889	20.000000	24.792257	50.000000	30.990321	30.000000	28.403098	70.000000	28.403098	55731.941000	1236.588848	56.535000	58.046485	55788.476000	1232.741966	72.084025	1.185211	69.334000	1.183633	0.000000	0.000000	0.000000	0.000000	0.679000	0.288932	4.049000	6.996515	64.606000	5.979249	5145.000000	378.399308	1587530.500000	56877.743666	0.000000	0.000000	0.000000	0.000000	0.000000	0.000000	0.000000	0.000000	0.154663	0.191972	0.153805	0.112936	0.178346	0.218615	0.187146	0.155452
130	77.522135	1.154962	77.343763	1.419430	76.847235	1.002345	77.405492	1.168435	30.000000	28.403098	20.000000	24.792257	20.000000	24.792257	50.000000	30.990321	61409.921000	1186.203363	87.839000	98.929118	61497.760000	1238.265855	79.494386	1.191658	77.279000	1.136301	0.000000	0.000000	0.000000	0.000000	0.658000	0.266168	9.861000	12.222411	66.760000	11.032396	5000.000000	355.241552	1175059.600000	39013.298889	0.000000	0.000000	0.000000	0.000000	0.000000	0.000000	0.000000	0.000000	0.449496	0.453626	0.321668	0.400033	0.310775	0.388378	0.307589	0.330450
170	81.063862	1.329629	81.079003	1.123719	81.081716	1.287627	81.208224	1.253568	30.000000	28.403098	30.000000	28.403098	20.000000	24.792257	70.000000	28.403098	64248.982000	1127.662084	63.103000	79.236744	64312.085000	1151.238319	83.106839	1.167457	81.136998	1.186248	0.000000	0.000000	0.000000	0.000000	0.746000	0.429774	11.344000	13.503811	69.047000	12.294936	4340.000000	486.222237	937083.400000	35759.221737	0.000000	0.000000	0.000000	0.000000	0.000000	0.000000	0.000000	0.000000	0.343023	0.378568	0.280994	0.433469	0.400102	0.540745	0.282817	0.263583
210	83.073321	0.973401	83.337746	0.425982	83.136108	0.689957	83.098518	0.500724	30.000000	28.403098	40.000000	30.364189	30.000000	28.403098	70.000000	28.403098	65582.163000	952.481700	37.401000	41.445833	65619.563000	935.019667	84.829256	0.471857	83.158003	0.465357	0.000000	0.000000	0.000000	0.000000	1.763000	1.112251	0.849000	0.630581	80.546000	1.305543	4795.000000	510.814131	853116.500000	48253.772226	0.000000	0.000000	0.000000	0.000000	0.000000	0.000000	0.000000	0.000000	0.206361	0.203633	0.157773	0.147292	0.181675	0.197835	0.143302	0.074840
250	85.700050	0.674594	85.588945	0.901630	85.938725	0.713127	85.414264	0.879395	40.000000	30.364189	30.000000	28.403098	50.000000	30.990321	60.000000	30.364189	67289.615000	879.583046	123.312000	114.832446	67412.926000	816.916281	87.135347	0.702251	85.600999	0.753051	0.000000	0.000000	0.000000	0.000000	1.402000	0.775540	8.340000	11.567725	75.859000	10.758013	4535.000000	332.637466	745891.500000	58109.641212	0.000000	0.000000	0.000000	0.000000	0.000000	0.000000	0.000000	0.000000	0.600089	0.516537	0.658340	0.676254	0.860676	0.745921	0.599976	0.529846
