#load	BP0	dB0	BP1	dB1	BP2	dB2	BP3	dB3	DP0	dD0	DP1	dD1	DP2	dD2	DP3	dD3	BKC	dBC	DSC	dDC	TC	dTC	BBR	dBBR	BR	dBR	BbDC	dBbDC	BbVNF	dBbVNF	BbBW	dBbBW	BbP	dBbP	BbLP	dBbLP	SC	dSC	RC	dRC	RP0	dR0	RP1	dR1	RP2	dR2	RP3	dR3	AD0	dA0	AD1	dA1	AD2	dA2	AD3	dA3
50	0.513331	0.608182	0.529803	0.651046	0.490997	0.595361	0.497723	0.588349	50.000000	30.990321	50.000000	30.990321	50.000000	30.990321	90.000000	18.594193	426.684000	526.763427	71.387000	33.590421	498.071000	523.687579	0.508091	0.605295	0.505000	0.604457	0.000000	0.000000	0.000000	0.000000	0.000000	0.000000	0.488000	0.608887	0.017000	0.031610	39085.000000	271.956622	2261239.300000	55474.372914	0.000000	0.000000	0.000000	0.000000	0.000000	0.000000	0.000000	0.000000	0.071415	0.053670	0.036692	0.027765	0.045031	0.030404	0.036114	0.012751
90	1.423398	1.138478	1.622774	1.238315	1.733024	1.239498	2.532849	1.648548	50.000000	30.990321	80.000000	24.792257	80.000000	24.792257	90.000000	18.594193	1331.597000	972.802354	133.054000	68.232356	1464.647000	1000.933260	2.212168	1.490392	2.030000	1.404126	0.000000	0.000000	0.000000	0.000000	0.000000	0.000000	0.519000	0.643611	1.511000	0.998764	46945.000000	447.045452	2240093.000000	46745.100275	0.000000	0.000000	0.000000	0.000000	0.000000	0.000000	0.000000	0.000000	0.045855	0.028470	0.137799	0.078031	0.097011	0.050239	0.091552	0.048076
130	4.570284	2.002734	5.383232	1.962214	6.046388	1.870779	8.737731	2.201785	50.000000	30.990321	70.000000	28.403098	80.000000	24.792257	70.000000	28.403098	4560.878000	1604.601072	190.173000	80.751301	4751.047000	1639.961544	7.526477	2.109793	6.933000	2.045173	0.000000	0.000000	0.000000	0.000000	0.000000	0.000000	0.481000	0.894381	6.452000	1.193683	51625.000000	622.319291	2082172.400000	51962.202334	0.000000	0.000000	0.000000	0.000000	0.000000	0.000000	0.000000	0.000000	0.155226	0.111451	0.109975	0.054582	0.121907	0.061138	0.100860	0.050442
170	8.962528	1.316791	10.619478	0.971239	12.141697	1.106617	15.609819	1.404650	60.000000	30.364189	80.000000	24.792257	80.000000	24.792257	80.000000	24.792257	8819.361000	841.364878	284.396000	152.609213	9103.753000	985.338747	13.979230	1.236901	12.999000	1.182250	0.000000	0.000000	0.000000	0.000000	0.000000	0.000000	0.487000	0.491339	12.512000	1.186921	53255.000000	449.616054	1899498.000000	41131.248113	0.000000	0.000000	0.000000	0.000000	0.000000	0.000000	0.000000	0.000000	0.200684	0.137964	0.167684	0.070204	0.224543	0.146635	0.159487	0.077573
210	13.998595	1.300128	15.733342	1.249391	17.930998	1.085779	21.430364	0.979477	90.000000	18.594193	70.000000	28.403098	80.000000	24.792257	90.000000	18.594193	13092.342000	1017.454778	247.603000	87.743403	13339.945000	1075.076009	19.721731	1.079497	18.563000	1.014709	0.000000	0.000000	0.000000	0.000000	0.000000	0.000000	0.426000	0.536913	18.137000	1.122151	54310.000000	773.616742	1716667.700000	36233.520627	0.000000	0.000000	0.000000	0.000000	0.000000	0.000000	0.000000	0.000000	0.252040	0.067286	0.150302	0.084204	0.233353	0.110406	0.161572	0.052875
250	18.633112	1.389916	20.396527	1.270394	22.460682	1.037683	26.360472	1.364511	80.000000	24.792257	90.000000	18.594193	80.000000	24.792257	90.000000	18.594193	16778.786000	982.973396	310.772000	110.719421	17089.557000	1043.943374	24.632696	1.139400	23.310000	1.169613	0.000000	0.000000	0.000000	0.000000	0.000000	0.000000	0.235000	0.436964	23.075000	0.965611	55295.000000	757.261669	1568842.000000	32302.871866	0.000000	0.000000	0.000000	0.000000	0.000000	0.000000	0.000000	0.000000	0.287362	0.128396	0.276070	0.102863	0.225343	0.125402	0.196911	0.094009
